forceR
…
[1] "copying 1068_cropped_ampdriftcorr_baselinecorr.csv..."
[1] "copying 1174_cropped_ampdriftcorr_baselinecorr.csv..."
[1] "copying 0980_cropped_ampdriftcorr.csv..."
[1] "copying 0982_cropped_ampdriftcorr.csv..."

File loading

Now we will load the first file in the results folder using load_single(). The function removes all columns except the one defined in columns = c(1:2) and renames them to t and y. Then, it adds a filename column based on the file name of the data.

file.list <- list.files(results.folder, pattern = "csv", full.names = TRUE)
df.1 <- load_single(file = file.list[1],
                    columns = c(1:2))

unique(df.1$filename)
#> # A tibble: 129,001 x 3
#>        t       y filename                              
#>    <dbl>   <dbl> <chr>                                 
#>  1     0 0.00447 0979_cropped_ampdriftcorr_baselinecorr
#>  2     1 0.00954 0979_cropped_ampdriftcorr_baselinecorr
#>  3     2 0.0146  0979_cropped_ampdriftcorr_baselinecorr
#>  4     3 0.0146  0979_cropped_ampdriftcorr_baselinecorr
#>  5     4 0.00951 0979_cropped_ampdriftcorr_baselinecorr
#>  6     5 0.00951 0979_cropped_ampdriftcorr_baselinecorr
#>  7     6 0.00950 0979_cropped_ampdriftcorr_baselinecorr
#>  8     7 0.00949 0979_cropped_ampdriftcorr_baselinecorr
#>  9     8 0.00948 0979_cropped_ampdriftcorr_baselinecorr
#> 10     9 0.00948 0979_cropped_ampdriftcorr_baselinecorr
#> # ... with 128,991 more rows

df.1
#> [1] "0979_cropped_ampdriftcorr_baselinecorr"

Alternatively, We can rapidly load all files in the results folder by using load_mult():

df.all <- load_mult(folder = results.folder,
                    columns = c(1:2))

df.all
#> # A tibble: 615,724 x 3
#>        t       y filename                              
#>    <dbl>   <dbl> <chr>                                 
#>  1     0 0.00447 0979_cropped_ampdriftcorr_baselinecorr
#>  2     1 0.00954 0979_cropped_ampdriftcorr_baselinecorr
#>  3     2 0.0146  0979_cropped_ampdriftcorr_baselinecorr
#>  4     3 0.0146  0979_cropped_ampdriftcorr_baselinecorr
#>  5     4 0.00951 0979_cropped_ampdriftcorr_baselinecorr
#>  6     5 0.00951 0979_cropped_ampdriftcorr_baselinecorr
#>  7     6 0.00950 0979_cropped_ampdriftcorr_baselinecorr
#>  8     7 0.00949 0979_cropped_ampdriftcorr_baselinecorr
#>  9     8 0.00948 0979_cropped_ampdriftcorr_baselinecorr
#> 10     9 0.00948 0979_cropped_ampdriftcorr_baselinecorr
#> # ... with 615,714 more rows
…
df.summary.species <- df.summary.specimen %>%
  # find max Fs of species
  group_by(species) %>%
  # calculate force values for each species
  mutate(max.F.species = max(max.F.specimen),
         mean.F.species = round(mean(max.F.specimen),6),
         sdv.max.F.species = sd(max.F.specimen)) %>% 
  ungroup() %>% 
  # count specimens / species
  group_by(species) %>% 
  mutate(n.specimens.in.species = length(unique(specimen))) %>% 
  ungroup()
df.summary.species
#> # A tibble: 24 x 12
#>    species  specimen measurement max.F.measureme~ mean.F.specimen max.F.specimen
#>    <chr>    <chr>    <chr>                  <dbl>           <dbl>          <dbl>
#>  1 species~ speciem~ m_01                    1.24            1.24           1.24
#>  2 species~ speciem~ m_02                    1.24            1.24           1.24
#>  3 species~ speciem~ m_03                    1.13            1.13           1.13
#>  4 species~ speciem~ m_04                    1.12            1.13           1.13
#>  5 species~ speciem~ m_05                    1.09            1.18           1.26
#>  6 species~ speciem~ m_06                    1.26            1.18           1.26
#>  7 species~ speciem~ m_07                    2.19            2.10           2.19
#>  8 species~ speciem~ m_08                    2.01            2.10           2.19
#>  9 species~ speciem~ m_09                    2.27            2.28           2.29
#> 10 species~ speciem~ m_10                    2.29            2.28           2.29
#> # ... with 14 more rows, and 6 more variables: sdv.max.F.specimen <dbl>,
#> #   n.measurements.in.specimen <int>, max.F.species <dbl>,
#> #   mean.F.species <dbl>, sdv.max.F.species <dbl>, n.specimens.in.species <int>
…
